{
    "project": {
        "name": "BasilJS",
        "description": "Simplified MV* library taking care of model monitoring and callbacks to allow the author to create their web application with or without their own forms of controllers",
        "version": "0.1.1",
        "url": "http://www.bwinparty.com"
    },
    "files": {
        "src/basil-0.05.js": {
            "name": "src/basil-0.05.js",
            "modules": {
                "BasilJS": 1
            },
            "classes": {
                "BasilJS": 1,
                "BasilJS.Utils": 1,
                "BasilJS.Utils.Template": 1
            },
            "fors": {},
            "namespaces": {}
        },
        "src/basil-if-0.01.js": {
            "name": "src/basil-if-0.01.js",
            "modules": {},
            "classes": {},
            "fors": {},
            "namespaces": {}
        },
        "src/basil-show-0.01.js": {
            "name": "src/basil-show-0.01.js",
            "modules": {},
            "classes": {},
            "fors": {},
            "namespaces": {}
        },
        "src/localStorage.polyfill.js": {
            "name": "src/localStorage.polyfill.js",
            "modules": {
                "localStorage polyfill": 1
            },
            "classes": {
                "window.localStorage": 1
            },
            "fors": {},
            "namespaces": {}
        }
    },
    "modules": {
        "BasilJS": {
            "name": "BasilJS",
            "submodules": {},
            "classes": {
                "BasilJS": 1,
                "BasilJS.Utils": 1,
                "BasilJS.Utils.Template": 1
            },
            "fors": {},
            "namespaces": {},
            "tag": "module",
            "file": "src/basil-0.05.js",
            "line": 1005,
            "description": "Creates the app object with a model which is synced over localStorage\nto any other windows using the same data store.\nMonitors the model and runs any user defined listeners to the changes.\n\nConstruction: var app = new BasilJS ( optionConfig );\n\nAnything under the variable app.model.* automatically persists and is\nshared across instances of your app. Future variables can persist by\ndefining them in cachedVariables {Array} with updateConfig or on app\nconstruction.",
            "is_constructor": 1
        },
        "localStorage polyfill": {
            "name": "localStorage polyfill",
            "submodules": {},
            "classes": {
                "window.localStorage": 1
            },
            "fors": {},
            "namespaces": {},
            "tag": "module",
            "file": "src/localStorage.polyfill.js",
            "line": 15,
            "description": "Polyfills the localStorage callback in IE 8\nPolyfills localStorage in IE 6-7"
        }
    },
    "classes": {
        "BasilJS": {
            "name": "BasilJS",
            "shortname": "BasilJS",
            "classitems": [],
            "plugins": [],
            "extensions": [],
            "plugin_for": [],
            "extension_for": [],
            "module": "BasilJS",
            "namespace": "",
            "file": "src/basil-0.05.js",
            "line": 1,
            "description": "Creates the app object with a model which is synced over localStorage\nto any other windows using the same data store.\nMonitors the model and runs any user defined listeners to the changes.\n\nConstruction: var app = new BasilJS ( optionConfig );\n\nAnything under the variable app.model.* automatically persists and is\nshared across instances of your app. Future variables can persist by\ndefining them in cachedVariables {Array} with updateConfig or on app\nconstruction."
        },
        "BasilJS.Utils": {
            "name": "BasilJS.Utils",
            "shortname": "BasilJS.Utils",
            "classitems": [],
            "plugins": [],
            "extensions": [],
            "plugin_for": [],
            "extension_for": [],
            "module": "BasilJS",
            "namespace": "",
            "file": "src/basil-0.05.js",
            "line": 903,
            "description": "Provides a number of reusable functions, not necessarily tied\njust to their usage in basil.",
            "since": "0.1.1",
            "static": 1
        },
        "BasilJS.Utils.Template": {
            "name": "BasilJS.Utils.Template",
            "shortname": "BasilJS.Utils.Template",
            "classitems": [],
            "plugins": [],
            "extensions": [],
            "plugin_for": [],
            "extension_for": [],
            "module": "BasilJS",
            "namespace": "",
            "file": "src/basil-0.05.js",
            "line": 1005,
            "description": "Provides a number of functions for binding and linking the DOM\nto the model\n\nInitialised with app.Utils.Template.compile(target); with target\npointing towards the top level DOM element to parse.",
            "since": "0.1.1",
            "static": 1
        },
        "window.localStorage": {
            "name": "window.localStorage",
            "shortname": "window.localStorage",
            "classitems": [],
            "plugins": [],
            "extensions": [],
            "plugin_for": [],
            "extension_for": [],
            "module": "localStorage polyfill",
            "namespace": "",
            "file": "src/localStorage.polyfill.js",
            "line": 15,
            "description": "Polyfills the localStorage callback in IE 8\nPolyfills localStorage in IE 6-7"
        }
    },
    "classitems": [
        {
            "file": "src/basil-0.05.js",
            "line": 54,
            "description": "First and foremost let's try and use .observe. It's sooo much easier\nand cleaner to use. But not nearly as widely supported. Meh",
            "itemtype": "method",
            "name": "createObserver",
            "access": "private",
            "tagname": "",
            "params": [
                {
                    "name": "obj",
                    "description": "Object to observe",
                    "type": "Object"
                },
                {
                    "name": "chain",
                    "description": "Name of object relative to the app object. IE app.model -> model, app.url.hash -> url.hash, app.myArray[10] -> myArray[10]",
                    "type": "String"
                },
                {
                    "name": "shouldRunListeners",
                    "description": "Whether or not the listeners of the passed object's children should be immeadiatly called.",
                    "type": "Boolean"
                }
            ],
            "class": "BasilJS",
            "module": "BasilJS"
        },
        {
            "file": "src/basil-0.05.js",
            "line": 198,
            "description": "Callback function to update model on changes of localStorage by other\ninstances of app",
            "itemtype": "method",
            "name": "localStorageCallback",
            "access": "private",
            "tagname": "",
            "params": [
                {
                    "name": "event",
                    "description": "StorageEvent provided by localStorage",
                    "type": "StorageEvent"
                }
            ],
            "class": "BasilJS",
            "module": "BasilJS"
        },
        {
            "file": "src/basil-0.05.js",
            "line": 236,
            "description": "Manually pulls data from storage (used to initially populate model)",
            "itemtype": "method",
            "name": "loadFromStorage",
            "access": "private",
            "tagname": "",
            "params": [
                {
                    "name": "stem",
                    "description": "Suffix of key to pull from localStorage",
                    "type": "String"
                },
                {
                    "name": "shouldParse",
                    "description": "Whether to try and process a JSON response, (false always returns the raw string)",
                    "type": "Boolean"
                }
            ],
            "output": "cache {Mixed} Entry in localStorage for given key",
            "class": "BasilJS",
            "module": "BasilJS"
        },
        {
            "file": "src/basil-0.05.js",
            "line": 264,
            "description": "Saves the active model to localStorage",
            "itemtype": "method",
            "name": "saveToStorage",
            "access": "private",
            "tagname": "",
            "params": [
                {
                    "name": "stem",
                    "description": "Suffic of key to save model to localStorage with",
                    "type": "String"
                }
            ],
            "class": "BasilJS",
            "module": "BasilJS"
        },
        {
            "file": "src/basil-0.05.js",
            "line": 297,
            "description": "Returns (if avaliable) the value of a given key within the model.*",
            "itemtype": "method",
            "name": "getModel",
            "params": [
                {
                    "name": "chain",
                    "description": "Variable in model to retrieve",
                    "type": "String"
                },
                {
                    "name": "shouldCopy",
                    "description": "Whether to return a copy of the requested variable",
                    "type": "Boolean"
                }
            ],
            "deprecated": true,
            "deprecationMessage": "Use `getVariable` with the model. prefix",
            "class": "BasilJS",
            "module": "BasilJS"
        },
        {
            "file": "src/basil-0.05.js",
            "line": 324,
            "description": "Sets the value of a value in model.*",
            "itemtype": "method",
            "name": "setModel",
            "params": [
                {
                    "name": "chain",
                    "description": "Variable in model to change",
                    "type": "String"
                },
                {
                    "name": "value",
                    "description": "Value to set to variable",
                    "type": "Mixed"
                }
            ],
            "deprecated": true,
            "deprecationMessage": "Use `setVariable` with the model. prefix",
            "class": "BasilJS",
            "module": "BasilJS"
        },
        {
            "file": "src/basil-0.05.js",
            "line": 353,
            "description": "Deletes a variable from the model.*",
            "itemtype": "method",
            "name": "deleteModel",
            "params": [
                {
                    "name": "chain",
                    "description": "Variable in model to delete",
                    "type": "String"
                }
            ],
            "deprecated": true,
            "deprecationMessage": "Use `deleteVariable` with the model.* prefix",
            "class": "BasilJS",
            "module": "BasilJS"
        },
        {
            "file": "src/basil-0.05.js",
            "line": 365,
            "description": "Returns any variable within the app object where avaliable",
            "itemtype": "method",
            "name": "getVariable",
            "params": [
                {
                    "name": "chain",
                    "description": "Variable in app object to retrieve",
                    "type": "String"
                },
                {
                    "name": "shouldCopy",
                    "description": "Whether to return a copy of the requested variable",
                    "type": "Boolean"
                }
            ],
            "class": "BasilJS",
            "module": "BasilJS"
        },
        {
            "file": "src/basil-0.05.js",
            "line": 396,
            "description": "Sets any variable within the app object",
            "itemtype": "method",
            "name": "setVariable",
            "params": [
                {
                    "name": "chain",
                    "description": "Variable in app object to set",
                    "type": "String"
                },
                {
                    "name": "value",
                    "description": "Value to set for given variable",
                    "type": "Mixed"
                }
            ],
            "class": "BasilJS",
            "module": "BasilJS"
        },
        {
            "file": "src/basil-0.05.js",
            "line": 421,
            "description": "Deletes a variable from the app object",
            "itemtype": "method",
            "name": "deleteVariable",
            "params": [
                {
                    "name": "chain",
                    "description": "Variable in app to delete",
                    "type": "String"
                }
            ],
            "class": "BasilJS",
            "module": "BasilJS"
        },
        {
            "file": "src/basil-0.05.js",
            "line": 440,
            "description": "Retrieves shadow copy of a provided variable",
            "itemtype": "method",
            "name": "getShadow",
            "access": "private",
            "tagname": "",
            "params": [
                {
                    "name": "chain",
                    "description": "Variable in app object shadow to retrieve",
                    "type": "String"
                },
                {
                    "name": "shouldCopy",
                    "description": "Whether to return a copy of the requested variable",
                    "type": "Boolean"
                }
            ],
            "return": {
                "description": "shadow",
                "type": "Mixed"
            },
            "class": "BasilJS",
            "module": "BasilJS"
        },
        {
            "file": "src/basil-0.05.js",
            "line": 473,
            "description": "Updates the shadow with the current app variables",
            "itemtype": "method",
            "name": "updateShadow",
            "access": "private",
            "tagname": "",
            "class": "BasilJS",
            "module": "BasilJS"
        },
        {
            "file": "src/basil-0.05.js",
            "line": 487,
            "description": "Converts a variable into a \"chain\" variable. Used internally\nto ensure all variables are formatted in a uniform fashion.\n\nIE app.model.tree -> [\"model\", \"tree\"]\n   app.url.bat[10] -> [\"url\", \"bat\", 10]",
            "itemtype": "method",
            "name": "cleanChain",
            "access": "private",
            "tagname": "",
            "params": [
                {
                    "name": "chain",
                    "description": "Variable to convert to \"chain\" array",
                    "type": "Mixed"
                }
            ],
            "return": {
                "description": "chain \t\"chain\" array",
                "type": "Array"
            },
            "class": "BasilJS",
            "module": "BasilJS"
        },
        {
            "file": "src/basil-0.05.js",
            "line": 520,
            "description": "Initialises the app's data from localStorage and starts observing\nthe app's variables.",
            "itemtype": "method",
            "name": "start",
            "class": "BasilJS",
            "module": "BasilJS"
        },
        {
            "file": "src/basil-0.05.js",
            "line": 573,
            "description": "Stops the dirty iterator. Does NOT stop observing variables with\n\tObject.observe.",
            "itemtype": "method",
            "name": "stop",
            "class": "BasilJS",
            "module": "BasilJS"
        },
        {
            "file": "src/basil-0.05.js",
            "line": 584,
            "description": "Updates the config of the app object. Automatically run on construction when\na config is passed.",
            "itemtype": "method",
            "name": "updateConfig",
            "params": [
                {
                    "name": "newConfig",
                    "description": "any new parameters",
                    "type": "Object"
                }
            ],
            "class": "BasilJS",
            "module": "BasilJS"
        },
        {
            "file": "src/basil-0.05.js",
            "line": 607,
            "description": "Runs listeners (if avaliable) for a given variable",
            "itemtype": "method",
            "name": "runListeners",
            "params": [
                {
                    "name": "watchVar",
                    "description": "Variable to run listeners for",
                    "type": "String"
                },
                {
                    "name": "varValue",
                    "description": "New value",
                    "type": "Mixed"
                },
                {
                    "name": "oldValue",
                    "description": "Old value",
                    "type": "Mixed"
                },
                {
                    "name": "runChildren",
                    "description": "Should run children listeners",
                    "type": "Boolean"
                },
                {
                    "name": "runParents",
                    "description": "Should run parent listeners",
                    "type": "Boolean"
                }
            ],
            "class": "BasilJS",
            "module": "BasilJS"
        },
        {
            "file": "src/basil-0.05.js",
            "line": 789,
            "description": "Deletes a listener",
            "itemtype": "method",
            "name": "removeListener",
            "params": [
                {
                    "name": "listenerID",
                    "description": "ID of listener to remove",
                    "type": "Integer"
                }
            ],
            "class": "BasilJS",
            "module": "BasilJS"
        },
        {
            "file": "src/basil-0.05.js",
            "line": 830,
            "description": "Adds a listener for a variable",
            "itemtype": "method",
            "name": "addListener",
            "params": [
                {
                    "name": "bindVariable",
                    "description": "Variable to bind listener function to",
                    "type": "String"
                },
                {
                    "name": "bindFunction",
                    "description": "Callback function to run on change of variable value",
                    "type": "Function"
                }
            ],
            "return": {
                "description": "listenerID  Unique ID of listener, to be used with removeListener",
                "type": "Integer"
            },
            "class": "BasilJS",
            "module": "BasilJS"
        },
        {
            "file": "src/basil-0.05.js",
            "line": 869,
            "description": "Returns the count of stored listeners for a variable",
            "itemtype": "method",
            "name": "listenerCount",
            "params": [
                {
                    "name": "bindVariable",
                    "description": "Return count of listeners bound to this variable",
                    "type": "String"
                },
                {
                    "name": "includeChildren",
                    "description": "Should include child listeners in count",
                    "type": "Boolean"
                }
            ],
            "return": {
                "description": "listenerCount  Number of listeners bound to variable (and children if requested)",
                "type": "Integer"
            },
            "class": "BasilJS",
            "module": "BasilJS"
        },
        {
            "file": "src/basil-0.05.js",
            "line": 913,
            "description": "Duplicates an object and returns a new copy",
            "itemtype": "method",
            "name": "copyObject",
            "params": [
                {
                    "name": "obj",
                    "description": "Object to duplicate",
                    "type": "Object"
                }
            ],
            "return": {
                "description": "duplicateObject  Duplicate object",
                "type": "Object"
            },
            "class": "BasilJS.Utils",
            "module": "BasilJS"
        },
        {
            "file": "src/basil-0.05.js",
            "line": 927,
            "description": "Combines to objects (with the first object passed given precedence",
            "itemtype": "method",
            "name": "mergeObjects",
            "params": [
                {
                    "name": "obj1",
                    "description": "Object with higher precendence",
                    "type": "Object"
                },
                {
                    "name": "obj2",
                    "description": "Object with lower precendence",
                    "type": "Object"
                },
                {
                    "name": "copy",
                    "description": "should duplicate objects before combining (Default: false)",
                    "type": "Boolean"
                }
            ],
            "return": {
                "description": "mergedObj  Combined object",
                "type": "Object"
            },
            "class": "BasilJS.Utils",
            "module": "BasilJS"
        },
        {
            "file": "src/basil-0.05.js",
            "line": 952,
            "description": "Returns true if the passed object is an array",
            "itemtype": "method",
            "name": "isArray",
            "params": [
                {
                    "name": "obj",
                    "description": "Object to check",
                    "type": "Object"
                }
            ],
            "return": {
                "description": "isArray  returns true if obj is an array",
                "type": "Boolean"
            },
            "class": "BasilJS.Utils",
            "module": "BasilJS"
        },
        {
            "file": "src/basil-0.05.js",
            "line": 966,
            "description": "Crossbrowser event listening to input value change via either\nthe user, or the browser autofill.",
            "itemtype": "method",
            "name": "onChange",
            "params": [
                {
                    "name": "e",
                    "description": "Element to listen to",
                    "type": "DOMElement"
                },
                {
                    "name": "callback",
                    "description": "Function to run on change",
                    "type": "Function"
                }
            ],
            "class": "BasilJS.Utils",
            "module": "BasilJS"
        },
        {
            "file": "src/basil-0.05.js",
            "line": 1020,
            "description": "Prefix to use when mapping template variables to model variables.\n\nFor example; with a prefix \"model\",\n\t{{player}}  -->  app.model.player\n\t{{site.name}} --> app.model.site.name",
            "itemtype": "property",
            "name": "variablePrefix",
            "type": "String",
            "default": "\"\"",
            "class": "BasilJS.Utils.Template",
            "module": "BasilJS"
        },
        {
            "file": "src/basil-0.05.js",
            "line": 1033,
            "description": "Maps a template variable to it's equivalent in the model",
            "itemtype": "method",
            "name": "mapVariableToModel",
            "access": "private",
            "tagname": "",
            "params": [
                {
                    "name": "variable",
                    "description": "Variable to map",
                    "type": "String"
                }
            ],
            "return": {
                "description": "modelVariable  Paired variable in model",
                "type": "String"
            },
            "class": "BasilJS.Utils.Template",
            "module": "BasilJS"
        },
        {
            "file": "src/basil-0.05.js",
            "line": 1049,
            "description": "Function to process any handlebars syntax within a single text node",
            "itemtype": "method",
            "name": "parseString",
            "access": "private",
            "tagname": "",
            "params": [
                {
                    "name": "node",
                    "description": "Node to output result",
                    "type": "DOMElement"
                },
                {
                    "name": "template",
                    "description": "String to parse",
                    "type": "String"
                },
                {
                    "name": "bindListeners",
                    "description": "Whether or not listeners should be bound to node",
                    "type": "Boolean"
                }
            ],
            "class": "BasilJS.Utils.Template",
            "module": "BasilJS"
        },
        {
            "file": "src/basil-0.05.js",
            "line": 1089,
            "description": "Function to process any <input>'s and apply a two way data bind\nwhere specified with the data-bind='' tag.",
            "itemtype": "method",
            "name": "bindInput",
            "access": "private",
            "tagname": "",
            "params": [
                {
                    "name": "node",
                    "description": "Node to apply two way data bind",
                    "type": "DOMElement"
                }
            ],
            "class": "BasilJS.Utils.Template",
            "module": "BasilJS"
        },
        {
            "file": "src/basil-0.05.js",
            "line": 1115,
            "description": "Function to process any handlebars syntax within a single text node",
            "itemtype": "method",
            "name": "compile",
            "is_constructor": 1,
            "params": [
                {
                    "name": "e",
                    "description": "Element on DOM to start compiling from",
                    "type": "DOMElement"
                },
                {
                    "name": "nodes",
                    "description": "Optional template of nodes to work with",
                    "type": "NodeList"
                }
            ],
            "class": "BasilJS.Utils.Template",
            "module": "BasilJS"
        },
        {
            "file": "src/basil-0.05.js",
            "line": 1245,
            "description": "Function to process a statement composed of model variables and\nreturn a true or false result (incomplete)",
            "itemtype": "method",
            "name": "executeStatement",
            "params": [
                {
                    "name": "statement",
                    "description": "",
                    "type": "String"
                }
            ],
            "return": {
                "description": "result",
                "type": "Boolean"
            },
            "class": "BasilJS.Utils.Template",
            "module": "BasilJS"
        },
        {
            "file": "src/basil-0.05.js",
            "line": 1257,
            "description": "Helper function for template helpers to access variables within their\nvariable scope",
            "itemtype": "method",
            "name": "getVariable",
            "params": [
                {
                    "name": "chain",
                    "description": "Variable in app object to retrieve",
                    "type": "String"
                },
                {
                    "name": "shouldCopy",
                    "description": "Whether to return a copy of the requested variable",
                    "type": "Boolean"
                }
            ],
            "class": "BasilJS.Utils.Template",
            "module": "BasilJS"
        },
        {
            "file": "src/basil-0.05.js",
            "line": 1270,
            "description": "Helper function for template helpers to set variables within their\nvariable scope",
            "itemtype": "method",
            "name": "setVariable",
            "params": [
                {
                    "name": "chain",
                    "description": "Variable in app object to set",
                    "type": "String"
                },
                {
                    "name": "value",
                    "description": "New value",
                    "type": "Mixed"
                }
            ],
            "class": "BasilJS.Utils.Template",
            "module": "BasilJS"
        },
        {
            "file": "src/basil-if-0.01.js",
            "line": 1,
            "description": "#if helper\nWill add or remove an element, if the statement passed to it is valid",
            "class": "window.localStorage",
            "module": "BasilJS"
        },
        {
            "file": "src/basil-show-0.01.js",
            "line": 1,
            "description": "#show helper\nWill hide or show an element, if the statement passed to it is valid",
            "class": "window.localStorage",
            "module": "BasilJS"
        },
        {
            "file": "src/localStorage.polyfill.js",
            "line": 27,
            "description": "Sets an item",
            "itemtype": "method",
            "name": "setItem",
            "params": [
                {
                    "name": "key",
                    "description": "key of item to set",
                    "type": "String"
                },
                {
                    "name": "value",
                    "description": "value of item to set",
                    "type": "String"
                }
            ],
            "return": {
                "description": "success  returns true if successful",
                "type": "Boolean"
            },
            "class": "window.localStorage",
            "module": "localStorage polyfill"
        },
        {
            "file": "src/localStorage.polyfill.js",
            "line": 55,
            "description": "Retrieves an item",
            "itemtype": "method",
            "name": "getItem",
            "params": [
                {
                    "name": "key",
                    "description": "key of item to retrieve",
                    "type": "String"
                }
            ],
            "return": {
                "description": "value  value of item",
                "type": "String"
            },
            "class": "window.localStorage",
            "module": "localStorage polyfill"
        },
        {
            "file": "src/localStorage.polyfill.js",
            "line": 68,
            "description": "Removes an item",
            "itemtype": "method",
            "name": "removeItem",
            "params": [
                {
                    "name": "key",
                    "description": "key of item to remove",
                    "type": "String"
                }
            ],
            "return": {
                "description": "success  returns true if successful",
                "type": "Boolean"
            },
            "class": "window.localStorage",
            "module": "localStorage polyfill"
        },
        {
            "file": "src/localStorage.polyfill.js",
            "line": 99,
            "description": "Clears and item from memory",
            "itemtype": "method",
            "name": "clear",
            "params": [
                {
                    "name": "key",
                    "description": "key of item to clear",
                    "type": "String"
                }
            ],
            "return": {
                "description": "success  returns true if successful",
                "type": "Boolean"
            },
            "class": "window.localStorage",
            "module": "localStorage polyfill"
        },
        {
            "file": "src/localStorage.polyfill.js",
            "line": 123,
            "description": "Polyfill for the localStorage even listener",
            "itemtype": "method",
            "name": "__eventListener",
            "access": "private",
            "tagname": "",
            "class": "window.localStorage",
            "module": "localStorage polyfill"
        },
        {
            "file": "src/localStorage.polyfill.js",
            "line": 175,
            "description": "Updates cached version of polyfilled localStorage object\nand saves any changes add directly to the localStorage\nobject",
            "itemtype": "method",
            "name": "__get",
            "class": "window.localStorage",
            "module": "localStorage polyfill"
        },
        {
            "file": "src/localStorage.polyfill.js",
            "line": 209,
            "description": "Creates a polyfilled StorageEvent and sends it to any\nexternal listeners.",
            "itemtype": "method",
            "name": "StorageEvent",
            "access": "private",
            "tagname": "",
            "params": [
                {
                    "name": "key",
                    "description": "key of item to changed",
                    "type": "String"
                },
                {
                    "name": "newValue",
                    "description": "new value of item changed",
                    "type": "String"
                }
            ],
            "return": {
                "description": "oldValue  old value of item changed",
                "type": "String"
            },
            "class": "window.localStorage",
            "module": "localStorage polyfill"
        }
    ],
    "warnings": [
        {
            "message": "unknown tag: output",
            "line": " src/basil-0.05.js:236"
        },
        {
            "message": "Missing item type\n#if helper\nWill add or remove an element, if the statement passed to it is valid",
            "line": " src/basil-if-0.01.js:1"
        },
        {
            "message": "Missing item type\n#show helper\nWill hide or show an element, if the statement passed to it is valid",
            "line": " src/basil-show-0.01.js:1"
        }
    ]
}